[ 0.  4. 19.  8.  0.]
[ 1.  2.  4.  8. 16.]
[0. 1. 2. 3. 4.]
[ 1.  6.  0.  8. 16.]
[21.  2.  0.  8.  0.]
[ 4.  2.  0.  8. 17.]
[ 4.  0.  2.  8. 17.]
[ 0.  4.  2.  8. 17.]
[ 0.  4.  0. 10. 17.]
[16.  4.  2.  8.  1.]
[16.  4.  2.  8.  1.]
[ 0.  4.  2.  8. 17.]
[16.  6.  0.  8.  1.]
[16.  6.  0.  8.  1.]
[16.  6.  0.  8.  1.]
[ 0.  6.  0.  8. 17.]
[ 2.  4.  0.  8. 17.]
[ 2.  4.  0. 24.  1.]
[ 2.  4.  0. 24.  1.]
[ 0.  4. 16.  9.  2.]
[ 0.  4. 16. 11.  0.]
[ 0.  4. 16. 11.  0.]
[ 0.  4. 18.  8.  1.]
[ 0.  6. 16.  8.  1.]
[ 0.  6.  0. 24.  1.]
[ 2.  4.  0. 24.  1.]
[ 2.  4.  0. 25.  0.]
[ 0.  6. 16.  8.  1.]
[ 0.  6. 16.  8.  1.]
[ 0.  6. 16.  8.  1.]
[ 0.  4. 18.  8.  1.]
[ 0.  6. 16.  8.  1.]
[ 0.  6. 16.  9.  0.]
[ 2. 20.  0.  9.  0.]
[ 2. 20.  1.  8.  0.]
[ 2. 20.  0.  9.  0.]
[ 0. 22.  0.  9.  0.]
[ 0. 22.  0.  8.  1.]
[ 2. 20.  0.  8.  1.]
[ 0. 22.  0.  8.  1.]
[ 0. 22.  0.  9.  0.]
[ 2. 20.  0.  9.  0.]
[18.  4.  0.  9.  0.]
[18.  4.  0.  9.  0.]
[18.  4.  0.  9.  0.]
[ 2. 20.  0.  9.  0.]
[ 2. 20.  0.  9.  0.]
[ 2.  4. 17.  8.  0.]
[ 2.  4.  1. 24.  0.]
[ 2.  4.  0.  9. 16.]
[ 2.  4.  0.  9. 16.]
[ 2.  4.  0.  9. 16.]
[ 0.  6.  1.  8. 16.]
[ 0.  7.  0.  8. 16.]
[ 0.  7.  0. 24.  0.]
[ 0.  7.  0. 24.  0.]
[ 2.  4.  1. 24.  0.]
[ 2.  4.  0. 25.  0.]
[ 2.  4. 16.  9.  0.]
[ 2.  4. 16.  9.  0.]
[ 0.  6. 16.  9.  0.]
[ 0.  4. 18.  9.  0.]
[ 0.  4. 18.  8.  1.]
[ 0.  4. 16. 10.  1.]
[ 1.  4. 16. 10.  0.]
[ 1. 20.  0. 10.  0.]
[ 1. 20.  2.  8.  0.]
[ 1. 20.  2.  8.  0.]
[ 1. 20.  2.  8.  0.]
[ 0.  7. 16.  8.  0.]
[ 0.  7. 16.  8.  0.]
[ 0.  7. 16.  8.  0.]
[ 0.  5. 18.  8.  0.]
[ 0.  5.  2. 24.  0.]
[ 0.  5.  2. 24.  0.]
[ 1.  4.  2.  8. 16.]
[ 1.  4.  0. 10. 16.]
[ 1.  4.  0. 10. 16.]
[17.  4.  0. 10.  0.]
[16.  5.  0. 10.  0.]
[17.  4.  0. 10.  0.]
[ 1.  4.  0. 10. 16.]
[ 1.  4.  0. 10. 16.]
[ 1.  4.  0. 10. 16.]
[17.  4.  0. 10.  0.]
[17.  4.  2.  8.  0.]
[ 0. 20.  2.  8.  1.]
[ 0. 20.  2.  8.  1.]
[ 0. 22.  0.  9.  0.]
[ 0. 22.  0.  9.  0.]
[ 2. 20.  0.  9.  0.]
[ 2. 20.  0.  9.  0.]
[18.  4.  0.  8.  1.]
[18.  4.  0.  9.  0.]
[ 0. 20.  0.  9.  2.]
[ 0. 20.  0.  9.  2.]
[ 0.  4. 16.  9.  2.]
[ 0.  4. 16.  9.  2.]
[ 0.  4. 17.  8.  2.]
[ 0.  4. 17.  8.  2.]
[ 0.  4.  1. 24.  2.]
[ 0.  4.  1. 24.  2.]
[ 0.  4. 17.  8.  2.]
[ 0.  4. 17.  8.  2.]
[ 0.  4.  0. 25.  2.]
[ 0.  4.  0. 25.  2.]
[ 0.  4.  0. 25.  2.]
[ 0.  4.  0.  9. 18.]
[ 0.  4.  1.  8. 18.]
[16.  4.  1. 10.  0.]
[16.  5.  2.  8.  0.]
[ 0.  5.  2.  8. 16.]
[16.  5.  2.  8.  0.]
[16.  4.  1. 10.  0.]
[16.  4.  3.  8.  0.]
[16.  4.  3.  8.  0.]
[16.  5.  2.  8.  0.]
[16.  5.  0. 10.  0.]
[16.  4.  1. 10.  0.]
[16.  4.  3.  8.  0.]
[16.  4.  1. 10.  0.]
[ 0. 20.  0. 11.  0.]
[ 0. 20.  0. 11.  0.]
[ 0.  4. 18.  9.  0.]
[ 0.  6. 16.  9.  0.]
[ 0.  6. 16.  9.  0.]
[ 0.  6.  0. 25.  0.]
[ 0.  6.  0.  9. 16.]
[ 0.  6.  0.  9. 16.]
[16.  6.  0.  9.  0.]
[16.  6.  1.  8.  0.]
[16.  6.  1.  8.  0.]
[16.  6.  1.  8.  0.]
[ 0.  6.  1.  8. 16.]
[ 0.  6.  1.  8. 16.]
[ 0.  7.  0.  8. 16.]
[16.  7.  0.  8.  0.]
[16.  6.  1.  8.  0.]
[16.  7.  0.  8.  0.]
[ 0.  7.  0.  8. 16.]
[ 0.  7.  0.  8. 16.]
[ 2.  5.  0.  8. 16.]
[ 2.  5.  0.  8. 16.]
[ 2.  5.  0.  8. 16.]
[ 3.  4.  0.  8. 16.]
[19.  4.  0.  8.  0.]
[ 3.  4.  0.  8. 16.]
[ 2.  5.  0.  8. 16.]
[ 3.  4.  0.  8. 16.]
[ 0.  4.  0.  8. 19.]
[ 1.  4.  0.  8. 18.]
[ 1.  4.  0.  8. 18.]
[ 1.  4.  0.  8. 18.]
[ 0.  5.  0.  8. 18.]
[ 0.  4.  1.  8. 18.]
[ 0.  4.  1. 26.  0.]
[ 0.  4.  3. 24.  0.]
[ 0.  6.  1. 24.  0.]
[ 2.  4.  1. 24.  0.]
[ 2.  4.  1. 24.  0.]
[ 0.  6.  1. 24.  0.]
[ 0.  4. 19.  8.  0.]
159

